Analyzing 311 Service Delivery Across NYC’s Income Divide – STA 9750 Submission Material
…
  print(missing_summary)
  
  # Data completeness
  cat("\nOverall Completeness:", 
      round((1 - sum(is.na(df)) / (nrow(df) * ncol(df))) * 100, 2), "%\n\n")
}

# Assess both datasets
assess_data_quality(df, "311 Service Requests")

=== Data Quality Assessment: 311 Service Requests ===
# A tibble: 41 × 3
   variable                 missing_count missing_percent
   <chr>                            <int>           <dbl>
 1 taxi_company_borough             49975           100.0
 2 road_ramp                        49892            99.8
 3 bridge_highway_direction         49850            99.7
 4 due_date                         49733            99.5
 5 bridge_highway_name              49695            99.4
 6 bridge_highway_segment           49696            99.4
 7 taxi_pick_up_location            49535            99.1
 8 vehicle_type                     47684            95.4
 9 facility_type                    46757            93.5
10 landmark                         23761            47.5
# ℹ 31 more rows
…
